Newark Airport|40.68906405|-74.1772548503535
Jamaica Bay|40.6039936|-73.8354124
Pelham Gardens|40.9098215|-73.8079111
Alphabet City|40.7251022|-73.9795833
Arden Heights|40.5576295|-74.1886086467958
ArrocharFort Wadsworth|40.60076325|-74.0576368445675
Astoria|40.7720145|-73.9302673
Astoria Park|40.7788277|-73.9226264888097
Auburndale|43.055966|-77.5020494
Baisley Park|40.68537625|-73.7826687858789
Bath Beach|40.5964509|-73.9946591811954
Battery Park|40.70291705|-74.0158007739805
Battery Park City|40.7110166|-74.0169369
Bay Ridge|40.6339929|-74.0145841
Fort Totten|40.79642835|-73.7795126090753
Bayside|40.7684351|-73.7770774
Bedford|40.6707894|-73.5280557
Bedford Park|40.8700999|-73.8856912
Bellerose|40.724269|-73.7151313
Belmont|42.2231241|-78.0344506
Bensonhurst East|40.6026115|-73.9930818
Bensonhurst West|40.6026115|-73.9930818
Emerson Hill|40.6085851|-74.0945642
Bloomingdale|44.4078279|-74.0870965
Boerum Hill|40.68562615|-73.9841706580728
Borough Park|40.633993|-73.9968059
Riis Beach|40.5650408|-73.8766928
Jamaica Hills|40.7138576|-73.8074334
Brighton Beach|40.577883|-73.9595826
Broad Channel|40.6064008|-73.8190187972814
Bronx Park|40.85862575|-73.8759261447257
Bronxdale|40.8506558|-73.8665241
Brooklyn Heights|40.69608485|-73.9950278391265
Brooklyn Navy Yard|40.70341085|-73.9699679965206
Brownsville|43.0116343|-77.3661779
Bushwick North|40.6942696|-73.9187482
Bushwick South|40.6942696|-73.9187482
Cambria Heights|40.6945474|-73.7384653
Canarsie|40.643715|-73.9006921
Carroll Gardens|40.6784201|-73.9948021
Central Harlem|40.8078786|-73.9454154
Central Harlem North|40.8078786|-73.9454154
Central Park|40.78384615|-73.964570666545
Tottenville|40.5112167|-74.2493117
Chinatown|40.7164913|-73.9962504
City Island|40.847456|-73.7864663715554
Bathgate|42.3370164|-77.3177577
Clinton East|44.7278943|-73.6686982
Clinton Hill|40.6897222|-73.9652778
Clinton West|44.7278943|-73.6686982
Co-Op City|40.8738889|-73.8294444
Cobble Hill|44.7897645|-73.9307007
College Point|40.7876014|-73.8459682
Columbia Street|42.80838|-73.923513
Coney Island|44.6061711|-74.9715859
Corona|40.7469593|-73.8601456
Corona|40.7469593|-73.8601456
Country Club|40.8391667|-73.8197222
Crotona Park|40.8389019|-73.8938645115504
Crotona Park East|40.8366014|-73.8929618
Crown Heights North|41.6400749|-73.9318707
Crown Heights South|41.6400749|-73.9318707
Cypress Hills|40.6770477|-73.8912474
Douglaston|40.768713|-73.7470765
MetroTech|40.69405415|-73.9857098
Vinegar Hill|42.2450867|-74.3937596
Dyker Heights|40.6214932|-74.009584
East Chelsea|41.5537048|-73.9668053
Concourse Village|40.82386815|-73.9211809121883
East Elmhurst|40.7612123|-73.8651358
Farragut|40.69918995|-73.9817419542442
Remsen Village|43.327176|-75.186996
East Flushing|40.7654301|-73.8174291
East Harlem North|40.7947222|-73.9425
East Harlem South|40.7947222|-73.9425
East New York|40.6667702|-73.8823583
Pennsylvania Avenue|40.6646501|-73.894767
East Tremont|40.8453781|-73.8909693
East Village|40.7292688|-73.9873613
East Williamsburg|40.7145307|-73.9484824
Eastchester|40.9610563|-73.8064739
Elmhurst|40.7365804|-73.8783932
Maspeth|40.723158|-73.912637
Prince's Bay|40.5289944|-74.197644
Erasmus|40.649644|-73.952884
Far Rockaway|40.6053825|-73.7551326
Financial District North|40.7088147|-74.0166889
Financial District South|40.7088147|-74.0166889
Ditmas Park|40.6375307|-73.9634487632331
Flatiron|40.7410861|-73.9896298241625
Flatlands|40.6212155|-73.9348597
Flushing|40.7654301|-73.8174291
Flushing Meadows-Corona Park|40.74077035|-73.8433777142299
Fordham South|40.8592667|-73.8984694
Forest Hills|43.1037625|-77.4841397804973
Highland Park|43.1961683|-78.6741983
Fort Greene|40.69092305|-73.9743583848668
Fresh Meadows|40.73613835|-73.7800882817176
Freshkills Park|40.5791894|-74.1799255450048
Garment District|40.7541084|-73.9950564
Glen Oaks|40.7470463|-73.7115199
Glendale|41.1970392|-73.8451355
Liberty Island|40.68981905|-74.0451397392316
Liberty Island|40.68981905|-74.0451397392316
Liberty Island|40.68981905|-74.0451397392316
Gowanus|40.6791695|-73.9885041
Gramercy|40.7379303|-73.985925
Gravesend|40.595263|-73.9729665657167
Great Kills|40.5542718|-74.1515318
Great Kills Park|40.54708575|-74.1276982134664
Green-Wood Cemetery|40.65221185|-73.9910006803783
Greenpoint|40.7237134|-73.9509714
Greenwich Village North|40.7335844|-74.0028172
Greenwich Village South|40.7335844|-74.0028172
Clifton|40.6201041|-74.0770857
Hamilton Heights|40.8241451|-73.9500618
Arverne|40.5934173|-73.7895462
Todt Hill|40.6010083|-74.1150363
Highbridge|40.84606425|-73.9297059291312
Highbridge Park|40.84606425|-73.9297059291312
Pomonok|40.7324478|-73.8088309397965
Hollis|40.7101715|-73.7666684
Homecrest|40.5861178|-73.9573067992795
Howard Beach|40.6578815|-73.8362459
Hudson Sq|42.2528649|-73.790959
Hunts Point|40.8126008|-73.8840247
Inwood|40.8656555|-73.9268035
Inwood Hill Park|40.87227365|-73.9254270915026
Jackson Heights|40.7556561|-73.8857755
Jamaica|40.6914852|-73.8056771
Jamaica Estates|40.7196592|-73.7810807
JFK Airport|40.6429479|-73.7793733748521
Kensington|40.7934345|-73.7220756
Kew Gardens|40.7139415|-73.830742
Kew Gardens Hills|40.7268559|-73.8189475
Kingsbridge Heights|40.8725702|-73.9026619
Kips Bay|40.7395463|-73.9770832
LaGuardia Airport|40.77550135|-73.8730604792763
Laurelton|40.668518|-73.7518434
Lenox Hill East|40.766539|-73.9589273158867
Lenox Hill West|40.766539|-73.9589273158867
Lincoln Square East|40.7725238|-73.9859525
Lincoln Square West|40.7725238|-73.9859525
NoLiTa|40.7225414|-73.993955
Hunters Point|40.7454387|-73.9577677
Queens Plaza|40.7490058|-73.9370491
Longwood|42.9531152|-78.3694646
Lower East Side|40.7159357|-73.9868057
Madison|42.875882|-75.6802581
Manhattan Beach|40.57667355|-73.9410673306364
Manhattan Valley|40.7902778|-73.9597222
Manhattanville|40.8158912|-73.9562747
Marble Hill|44.7933875|-74.9585321
Floyd Bennett Field|40.5851073|-73.8915613
Mill Basin|40.6032495|-73.9068747
Mariners Harbor|40.6367701|-74.1587547
Maspeth|40.723158|-73.912637
West Village West|42.89065565|-78.8802949924686
Melrose South|40.824545|-73.9104143
Middle Village|42.8331288|-74.8298717
Midtown Center|40.7541476|-73.9840473
Midtown East|40.756168|-73.9787447
Midtown North|40.7677778|-73.9913889
Midtown South|40.7504824|-74.0189432
Midwood|40.6188823|-73.9654889
Morningside Heights|40.81|-73.9625
Melrose|40.824545|-73.9104143
Port Morris|40.8015147|-73.9095811
Mount Hope|41.4445382|-74.5218263
Murray Hill|40.7481574|-73.97875
Murray Hill-Queens|40.76|-73.8130556
Midland Beach|40.5731606|-74.094586
North Corona|40.7469593|-73.8601456
Norwood|44.75161|-74.994392
Oakland Gardens|40.753991|-73.765966
Oakwood|40.563994|-74.1159754
Ocean Hill|40.6757317|-73.9124338
Ocean Parkway South|40.60251|-73.9661
Old Astoria|40.7720145|-73.9302673
Ozone Park|40.67677|-73.8437461
Park Slope|40.6701033|-73.9859723
Parkchester|40.8389893|-73.8604128
Pelham Bay|40.8505556|-73.8333333
Pelham Bay Park|40.85413105|-73.8221733014434
Pelham Parkway|40.8575923|-73.85963606359
Madison Sq West|40.7427673|-73.9915172
Port Richmond|40.6331592|-74.1365318
Prospect-Lefferts Gardens|40.6590967|-73.9590578
Prospect Heights|42.617302|-73.7395648
Prospect Park|40.66177525|-73.971099842403
Queens Village|40.7267692|-73.7415208
Queensboro Hill|40.7613898|-73.9624624
Ravenswood|42.8708104|-73.8180812111742
Randalls Island|40.7967677|-73.9220815
Red Hook|41.9950819|-73.8755918
Rego Park|40.72293705|-73.8622143682176
Richmond Hill|42.7400674|-75.8901954
Ridgewood|43.2503348|-78.6472536
Rikers Island|40.79193175|-73.8834937172795
Fieldston|40.8944444|-73.9033333
Rockaway Park|40.5805104|-73.8361535
Roosevelt Island|40.7614177|-73.9502281671115
Rosedale|40.6620479|-73.7354097
Woodrow|40.5434385|-74.1976441
Saint Albans|40.6984364|-73.7606881
New Brighton|40.6423258|-74.0929195
Woodside|42.5217281|-78.7650292
Edgewater Park|42.8809008|-76.3802113
Seaport|40.7057752|-74.0028376
Sheepshead Bay|40.5826303|-73.9456187
SoHo|40.72288|-73.9987505
Bruckner|40.8266667|-73.8286111
Castle Hill|41.3842608|-74.5376599
Dongan Hills|40.5979271|-74.0980274
South Jamaica|40.6914852|-73.8056771
South Ozone Park|40.6701035|-73.8190231
South Williamsburg|40.7085692|-73.9723854
Springfield Gardens North|40.678159|-73.746521
Springfield Gardens South|40.678159|-73.746521
Kingsbridge|40.8787051|-73.9051408
Stapleton|40.6264774|-74.0776361
Starrett City|40.6478541|-73.8795154568842
Steinway|40.7745459|-73.9037477
Peter Cooper Village|40.7340429|-73.9776225
Stuyvesant Heights|42.387863|-73.775751
Sunnyside|40.7398242|-73.9354153
Sunset Park East|40.644337|-74.007532
Sunset Park West|40.644337|-74.007532
Turtle Bay North|40.756168|-73.9787447
Theatre District|40.7258333|-73.9927778
Civic Center|40.7137685|-74.0078544
Seward Park|40.7152812|-73.9892866198562
Turtle Bay South|40.756168|-73.9787447
Union Sq|43.009735|-78.194919
Morris Heights|40.8498223|-73.919859
Upper East Side North|40.7735431|-73.9587337
Upper East Side South|40.7735431|-73.9587337
Upper West Side North|40.7870455|-73.9754163
Upper West Side South|40.7870455|-73.9754163
Van Cortlandt Park|40.89725145|-73.8864989944736
Van Cortlandt Village|40.7019586|-73.971642
Morris Park|40.8523224|-73.8534682
Washington Heights North|40.8501001|-73.9354149
Washington Heights South|40.883325|-72.515328
West Brighton|40.5775|-73.9725
Hudson Yards|40.7535011|-74.0032370110498
West Concourse|42.445803|-73.659611
Bronx River|41.0690074|-73.7710539
West Village|42.89065565|-78.8802949924686
Unionport|40.8273229|-73.8501349
Westerleigh|40.621215|-74.1318094
Whitestone|40.7945457|-73.8184674
Willets Point|42.7109039|-76.7043932
Olinville|40.882014|-73.866201
Williamsburg (North Side)|40.7181383|-73.9524334
Williamsburg (South Side)|40.7154276|-73.9600058
Windsor Terrace|40.6557273|-73.9767082
Woodhaven|40.6892698|-73.8579131
Wakefield|40.8978772|-73.8523569
Woodside|42.5217281|-78.7650292
World Trade Center|40.7118914|-74.0126129
Yorkville East|40.7789173|-73.9541667
