Year;Month;Day;Hour;Minute;Temperature  [2 m above gnd];Total Precipitation  [sfc];Wind Speed  [10 m above gnd];Wind Direction  [10 m above gnd]
2018;02;07;00;00;-0.11;0.00;14.06;309.81
2018;02;07;01;00;0.27;0.00;14.02;318.12
2018;02;07;02;00;-0.65;0.00;12.78;327.65
2018;02;07;03;00;-0.73;0.00;11.30;337.52
2018;02;07;04;00;-0.58;0.00;10.45;358.03
2018;02;07;05;00;-0.66;0.00;11.77;23.43
2018;02;07;06;00;-0.89;0.00;12.50;41.50
2018;02;07;07;00;-1.21;0.00;13.89;58.78
2018;02;07;08;00;-1.28;0.00;16.74;71.18
2018;02;07;09;00;-1.27;0.00;20.06;80.71
2018;02;07;10;00;-1.09;0.00;23.77;88.26
2018;02;07;11;00;-0.42;0.00;26.66;92.32
2018;02;07;12;00;-0.59;0.00;25.58;92.42
2018;02;07;13;00;-0.07;0.80;23.50;95.27
2018;02;07;14;00;0.03;1.70;27.01;91.53
2018;02;07;15;00;0.58;1.60;30.62;92.02
2018;02;07;16;00;1.28;1.80;34.43;96.60
2018;02;07;17;00;2.00;2.10;33.54;102.40
2018;02;07;18;00;2.53;2.60;30.06;108.87
2018;02;07;19;00;3.24;3.30;29.30;127.01
2018;02;07;20;00;5.71;3.90;34.15;161.57
2018;02;07;21;00;7.60;3.20;45.16;188.71
2018;02;07;22;00;7.85;2.60;55.42;201.73
2018;02;07;23;00;7.26;1.70;43.06;215.82
2018;02;08;00;00;5.88;2.70;43.45;248.11
2018;02;08;01;00;3.17;0.60;45.52;278.64
2018;02;08;02;00;1.70;0.00;42.92;288.59
2018;02;08;03;00;1.35;0.00;43.99;291.10
2018;02;08;04;00;0.39;0.00;47.13;302.84
2018;02;08;05;00;-2.39;0.00;50.47;312.11
2018;02;08;06;00;-4.31;0.00;49.24;311.15
2018;02;08;07;00;-4.79;0.00;47.18;311.60
2018;02;08;08;00;-4.54;0.00;45.32;316.29
2018;02;08;09;00;-4.36;0.00;42.96;320.44
2018;02;08;10;00;-4.43;0.00;40.48;321.50
2018;02;08;11;00;-4.55;0.00;37.89;321.17
2018;02;08;12;00;-5.99;0.00;26.14;308.29
2018;02;08;13;00;-5.55;0.00;27.37;305.36
2018;02;08;14;00;-4.58;0.00;28.23;307.75
2018;02;08;15;00;-3.31;0.00;27.53;311.82
2018;02;08;16;00;-2.41;0.00;27.50;313.94
2018;02;08;17;00;-1.69;0.00;27.76;313.42
2018;02;08;18;00;-1.28;0.00;27.57;310.76
2018;02;08;19;00;-1.09;0.00;27.38;309.13
2018;02;08;20;00;-1.15;0.00;27.50;307.02
2018;02;08;21;00;-1.51;0.00;27.86;302.87
2018;02;08;22;00;-2.09;0.00;27.29;300.96
2018;02;08;23;00;-2.50;0.00;24.65;298.81
2018;02;09;00;00;-2.68;0.00;23.36;294.59
2018;02;09;01;00;-2.18;0.00;22.21;286.97
2018;02;09;02;00;-2.33;0.00;19.88;275.19
2018;02;09;03;00;-2.27;0.00;18.89;262.33
2018;02;09;04;00;-2.41;0.00;19.93;253.20
2018;02;09;05;00;-2.40;0.00;22.43;251.27
2018;02;09;06;00;-2.95;0.00;24.38;253.71
2018;02;09;07;00;-2.91;0.00;25.86;261.19
2018;02;09;08;00;-3.54;0.00;25.56;269.19
2018;02;09;09;00;-3.80;0.00;23.73;279.61
2018;02;09;10;00;-3.94;0.00;21.63;288.43
2018;02;09;11;00;-3.99;0.00;19.16;295.60
2018;02;09;12;00;-4.82;0.00;7.42;309.09
2018;02;09;13;00;-3.74;0.00;5.80;299.74
2018;02;09;14;00;-0.66;0.00;2.52;270.00
2018;02;09;15;00;-1.69;0.00;7.75;201.80
2018;02;09;16;00;-1.42;0.00;14.12;199.36
2018;02;09;17;00;-0.87;0.00;18.92;201.19
2018;02;09;18;00;-0.51;0.00;21.46;202.69
2018;02;09;19;00;-0.18;0.00;21.87;200.22
2018;02;09;20;00;0.22;0.00;21.75;192.43
2018;02;09;21;00;0.44;0.00;23.08;183.58
2018;02;09;22;00;0.43;0.00;22.33;178.15
2018;02;09;23;00;0.31;0.00;20.48;169.88
2018;02;10;00;00;0.40;0.00;20.97;168.11
2018;02;10;01;00;0.63;0.00;20.06;170.71
2018;02;10;02;00;0.77;0.00;18.23;170.91
2018;02;10;03;00;1.15;0.00;17.52;170.54
2018;02;10;04;00;1.38;0.00;16.39;171.16
2018;02;10;05;00;1.64;0.00;15.94;173.52
2018;02;10;06;00;1.97;0.00;14.78;177.21
2018;02;10;07;00;2.33;0.00;14.76;180.00
2018;02;10;08;00;2.58;0.00;15.50;182.66
2018;02;10;09;00;2.77;0.00;16.30;186.34
2018;02;10;10;00;2.92;0.00;17.06;187.28
2018;02;10;11;00;3.05;0.00;16.70;187.43
2018;02;10;12;00;3.22;0.00;15.48;197.59
2018;02;10;13;00;4.51;0.00;16.42;195.26
2018;02;10;14;00;6.18;0.00;18.69;195.64
2018;02;10;15;00;8.51;0.00;21.63;198.43
2018;02;10;16;00;9.61;0.00;24.02;199.25
2018;02;10;17;00;11.07;0.00;26.65;196.48
2018;02;10;18;00;12.06;0.00;27.50;194.40
2018;02;10;19;00;12.54;0.00;27.07;193.85
2018;02;10;20;00;11.83;0.00;25.35;191.47
2018;02;10;21;00;11.14;1.60;23.14;185.36
2018;02;10;22;00;10.56;2.30;20.16;178.98
2018;02;10;23;00;9.91;2.00;18.78;167.83
2018;02;11;00;00;9.53;2.60;19.32;153.43
2018;02;11;01;00;9.40;1.30;21.75;160.67
2018;02;11;02;00;9.42;0.10;21.61;190.56
2018;02;11;03;00;10.33;0.00;26.49;222.80
2018;02;11;04;00;10.68;0.30;28.37;234.29
2018;02;11;05;00;10.39;0.60;26.21;232.82
2018;02;11;06;00;10.28;1.50;18.34;226.59
2018;02;11;07;00;10.50;4.10;11.30;210.65
2018;02;11;08;00;10.00;3.20;8.31;175.03
2018;02;11;09;00;9.05;3.80;10.00;149.74
2018;02;11;10;00;9.85;4.60;13.70;183.01
2018;02;11;11;00;10.11;2.40;17.71;217.57
2018;02;11;12;00;6.47;2.30;7.75;68.20
2018;02;11;13;00;5.89;2.70;9.57;70.20
2018;02;11;14;00;5.51;2.90;11.04;70.97
2018;02;11;15;00;5.04;4.40;13.21;72.55
2018;02;11;16;00;4.88;7.50;14.33;78.41
2018;02;11;17;00;5.19;7.00;11.53;91.79
2018;02;11;18;00;5.62;2.50;3.08;110.56
2018;02;11;19;00;6.78;1.40;1.14;161.57
2018;02;11;20;00;7.61;1.50;5.45;187.59
2018;02;11;21;00;8.16;1.20;11.01;191.31
2018;02;11;22;00;9.19;0.90;13.91;201.25
2018;02;11;23;00;10.15;0.60;16.58;214.38
2018;02;12;00;00;11.28;0.50;17.10;220.73
2018;02;12;01;00;11.86;1.40;18.60;222.65
2018;02;12;02;00;12.08;0.40;22.92;226.27
2018;02;12;03;00;12.44;0.10;22.39;233.50
2018;02;12;04;00;12.45;2.30;19.93;249.93
2018;02;12;05;00;11.36;3.00;26.41;281.00
2018;02;12;06;00;9.02;0.10;34.78;295.77
2018;02;12;07;00;6.26;0.00;39.70;300.52
2018;02;12;08;00;4.53;0.00;43.83;303.95
2018;02;12;09;00;2.83;0.00;46.28;309.63
2018;02;12;10;00;0.87;0.00;45.36;312.43
2018;02;12;11;00;-0.42;0.00;43.55;313.33
2018;02;12;12;00;-0.83;0.00;30.06;316.94
2018;02;12;13;00;-0.18;0.00;28.95;321.56
2018;02;12;14;00;0.77;0.00;27.67;327.76
2018;02;12;15;00;1.82;0.00;25.77;331.65
2018;02;12;16;00;2.05;0.00;24.36;325.84
2018;02;12;17;00;2.53;0.00;24.36;325.84
2018;02;12;18;00;3.92;0.00;26.89;333.78
2018;02;12;19;00;4.71;0.00;27.61;337.78
2018;02;12;20;00;4.65;0.00;29.08;338.20
2018;02;12;21;00;3.75;0.00;29.97;335.90
2018;02;12;22;00;2.19;0.00;28.82;334.08
2018;02;12;23;00;0.25;0.00;27.24;330.72
2018;02;13;00;00;-1.17;0.00;27.42;330.07
2018;02;13;01;00;-2.20;0.00;26.93;330.35
2018;02;13;02;00;-2.86;0.00;25.76;333.43
2018;02;13;03;00;-3.17;0.00;23.87;336.91
2018;02;13;04;00;-3.26;0.00;21.86;342.76
2018;02;13;05;00;-3.37;0.00;19.06;349.11
2018;02;13;06;00;-3.54;0.00;17.02;353.93
2018;02;13;07;00;-3.68;0.00;15.12;360.00
2018;02;13;08;00;-3.85;0.00;14.11;5.86
2018;02;13;09;00;-4.05;0.00;13.56;10.71
2018;02;13;10;00;-4.23;0.00;13.55;16.99
2018;02;13;11;00;-4.47;0.00;13.85;24.57
2018;02;13;12;00;-3.01;0.00;13.38;23.81
2018;02;13;13;00;-2.62;0.00;14.20;30.47
2018;02;13;14;00;-1.96;0.00;14.34;38.88
2018;02;13;15;00;-1.16;0.00;14.29;49.09
2018;02;13;16;00;-0.39;0.00;14.01;64.09
2018;02;13;17;00;0.36;0.00;13.80;82.50
2018;02;13;18;00;0.83;0.00;13.85;98.97
2018;02;13;19;00;1.14;0.00;14.02;119.20
2018;02;13;20;00;1.42;0.00;15.04;132.09
2018;02;13;21;00;1.31;0.00;15.55;137.82
2018;02;13;22;00;0.86;0.00;15.35;140.71
2018;02;13;23;00;0.42;0.00;14.57;140.01
2018;02;14;00;00;0.26;0.00;14.40;143.13
2018;02;14;01;00;-0.63;0.00;8.37;154.54
2018;02;14;02;00;-0.56;0.00;7.57;154.65
2018;02;14;03;00;0.11;0.00;6.44;153.43
2018;02;14;04;00;0.34;0.00;5.63;153.43
2018;02;14;05;00;0.44;0.00;5.01;158.96
2018;02;14;06;00;0.50;0.00;3.88;158.20
2018;02;14;07;00;0.55;0.00;3.42;161.57
